{
  "openapi": "3.0.0",
  "info": {
    "title": "adis-flat-rate",
    "version": "0.0.6",
    "description": "ADIS Paušální daň",
    "contact": {
      "name": "Jan Kulich",
      "email": "jan_kulich@cz.ibm.com"
    }
  },
  "servers": [
    {
      "url": "http://prism-1-adis-flat-rate.apps-crc.testing",
      "description": "PRISM"
    },
    {
      "url": "http://localhost:4010/adis-flat-rate/v1",
      "description": "LOCAL"
    }
  ],
  "paths": {
    "/checkSelfEmplResponse": {
      "description": "Služba pro přijetí asynchronní odpovědi ověření účasti poplatníka na veřejném zdravotním pojištění nebo na důchodovém pojištění a čísla pojištěnce a zároveň pro ověření jestli není zaměstnanec a zjištění EČP ČSSZ pokud nebylo na vstupu.",
      "post": {
        "x-controller-name": "CheckSelfEmplResponseController",
        "x-operation-name": "create",
        "tags": [
          "CheckSelfEmplResponse Controller"
        ],
        "responses": {
          "204": {
            "description": "checkSelfEmplResponse POST success"
          },
          "400": {
            "description": "Bad Request - The request could not be understood by the server due to malformed syntax.",
            "content": {
              "application/json": {
                "schema": {
                  "$ref": "#/components/schemas/Error"
                },
                "example": {
                  "code": "SYNTAX_ERROR",
                  "reason": "Malformed syntax"
                }
              }
            }
          },
          "403": {
            "description": "Forbidden"
          },
          "409": {
            "description": "Conflict",
            "content": {
              "application/json": {
                "schema": {
                  "$ref": "#/components/schemas/Error"
                },
                "example": {
                  "code": "CANNOT_PROCEED",
                  "reason": "Can not proceed",
                  "message": "Proposed change has been declined because correlationId can not be found"
                }
              }
            }
          },
          "413": {
            "description": "Payload Too Large"
          },
          "422": {
            "description": "Unprocessable Entity - Request is well-formed, however, due to semantic errors it is unable to be processed.",
            "content": {
              "application/json": {
                "schema": {
                  "$ref": "#/components/schemas/Error"
                },
                "example": {
                  "code": "VALIDATION_FAILED",
                  "reason": "The request is invalid."
                }
              }
            }
          },
          "500": {
            "description": "Internal Server Error"
          }
        },
        "requestBody": {
          "required": true,
          "content": {
            "application/json": {
              "schema": {
                "$ref": "#/components/schemas/CheckSelfEmplResponse"
              },
              "example": {
                "headers": {
                  "messageId": "1451ffb6-542a-11eb-ae93-0242ac130002",
                  "timestamp": "2021-02-02T08:12:55.657Z",
                  "correlationId": "0d53a91c-542a-11eb-ae93-0242ac130002",
                  "consumerId": "IDR",
                  "providerId": "ADIS",
                  "parameters": [
                    {
                      "key": "FU",
                      "value": "230"
                    }
                  ]
                },
                "subjekty": [
                  {
                    "id": "1451ffb6-542a-11eb-ae93-0242ac130002",
                    "rodneCislo": "230115845",
                    "cisloPojistence": "230115845",
                    "jmeno": "Eulálius",
                    "prijmeni": "Nový",
                    "rodnePrijmeni": "Nový",
                    "datumNarozeni": "1923-01-15",
                    "jePojisten": "ano",
                    "intervalySvc": [
                      {
                        "oznameniZahajeniSvc": "2019-01-05",
                        "zahajeniSvc": "2019-12-31"
                      }
                    ],
                    "intervalyZam": [
                      {
                        "zahajeniZam": "2011-01-05",
                        "oznameniUkonceniZam": "2020-12-31",
                        "typPracovnihoPomeru": "Název druhu činnosti v zaměstnání",
                        "nazevZam": "Firma s.r.o.",
                        "icoZam": "25596641",
                        "adresaZam": "ulice, čp./čo., PSČ, město, stát"
                      }
                    ],
                    "vysledekZpracovani": [
                      "cssz",
                      "zp"
                    ]
                  },
                  {
                    "id": "18e5c6fc-542a-11eb-ae93-0242ac130003",
                    "aifo": "ZjBAP1xX+70NRhfFwcmiaA8=",
                    "evidencniCisloPojistence": "440412854",
                    "jmeno": "Sluncemil",
                    "prijmeni": "Hřebíček",
                    "datumNarozeni": "1944-04-12",
                    "vysledekZpracovani": [
                      "none"
                    ]
                  },
                  {
                    "id": "18e5c6fc-542a-11eb-ae93-0242ac130004",
                    "aifo": "ZjBAP1xX+70NRhfFwcmiaA8=",
                    "evidencniCisloPojistence": "440412854",
                    "jmeno": "Jiří",
                    "prijmeni": "Hřebíček",
                    "datumNarozeni": "1944-04-12",
                    "intervalySvc": [
                      {
                        "oznameniZahajeniSvc": "2019-01-05",
                        "zahajeniSvc": "2019-12-31"
                      }
                    ],
                    "intervalyZam": [
                      {
                        "zahajeniZam": "2011-01-05",
                        "oznameniUkonceniZam": "2020-12-31",
                        "typPracovnihoPomeru": "Název druhu činnosti v zaměstnání",
                        "nazevZam": "Firma s.r.o.",
                        "icoZam": "25596641",
                        "adresaZam": "ulice, čp./čo., PSČ, město, stát"
                      }
                    ],
                    "vysledekZpracovani": [
                      "cssz"
                    ]
                  }
                ]
              }
            }
          }
        },
        "operationId": "CheckSelfEmplResponseController.create"
      }
    },
    "/enteredFlatRateResponse": {
      "post": {
        "x-controller-name": "EnteredFlatRateResponseController",
        "x-operation-name": "create",
        "tags": [
          "FlatRateResponseController"
        ],
        "responses": {
          "204": {
            "description": "enteredFlatRateResponse POST success"
          },
          "400": {
            "description": "Bad Request - The request could not be understood by the server due to malformed syntax.",
            "content": {
              "application/json": {
                "schema": {
                  "$ref": "#/components/schemas/Error"
                },
                "example": {
                  "code": "SYNTAX_ERROR",
                  "reason": "Malformed syntax"
                }
              }
            }
          },
          "403": {
            "description": "Forbidden"
          },
          "409": {
            "description": "Conflict",
            "content": {
              "application/json": {
                "schema": {
                  "$ref": "#/components/schemas/Error"
                },
                "example": {
                  "code": "CANNOT_PROCEED",
                  "reason": "Can not proceed",
                  "message": "Proposed change has been declined because correlationId can not be found"
                }
              }
            }
          },
          "413": {
            "description": "Payload Too Large"
          },
          "422": {
            "description": "Unprocessable Entity - Request is well-formed, however, due to semantic errors it is unable to be processed.",
            "content": {
              "application/json": {
                "schema": {
                  "$ref": "#/components/schemas/Error"
                },
                "example": {
                  "code": "VALIDATION_FAILED",
                  "reason": "The request is invalid."
                }
              }
            }
          },
          "500": {
            "description": "Internal Server Error"
          }
        },
        "requestBody": {
          "required": true,
          "content": {
            "application/json": {
              "schema": {
                "$ref": "#/components/schemas/FlatRateResponse"
              },
              "example": {
                "headers": {
                  "messageId": "1451ffb6-542a-11eb-ae93-0242ac130002",
                  "timestamp": "2021-02-02T08:12:55.657Z",
                  "correlationId": "e8ac51e6-5432-11eb-ae93-0242ac130002",
                  "consumerId": "IDR",
                  "providerId": "ADIS",
                  "parameters": [
                    {
                      "key": "FU",
                      "value": "230"
                    }
                  ]
                },
                "messages": [
                  {
                    "id": "e179fe0a-5432-11eb-ae93-0242ac130002",
                    "processingResult": [
                      "cssz",
                      "zp"
                    ]
                  }
                ]
              }
            }
          }
        },
        "operationId": "EnteredFlatRateResponseController.create"
      }
    },
    "/terminatedFlatRateResponse": {
      "post": {
        "x-controller-name": "TerminatedFlatRateResponseController",
        "x-operation-name": "create",
        "tags": [
          "FlatRateResponseController"
        ],
        "responses": {
          "204": {
            "description": "terminatedFlatRateResponse POST success"
          },
          "400": {
            "description": "Bad Request - The request could not be understood by the server due to malformed syntax.",
            "content": {
              "application/json": {
                "schema": {
                  "$ref": "#/components/schemas/Error"
                },
                "example": {
                  "code": "SYNTAX_ERROR",
                  "reason": "Malformed syntax"
                }
              }
            }
          },
          "403": {
            "description": "Forbidden"
          },
          "409": {
            "description": "Conflict",
            "content": {
              "application/json": {
                "schema": {
                  "$ref": "#/components/schemas/Error"
                },
                "example": {
                  "code": "CANNOT_PROCEED",
                  "reason": "Can not proceed",
                  "message": "Proposed change has been declined because correlationId can not be found"
                }
              }
            }
          },
          "413": {
            "description": "Payload Too Large"
          },
          "422": {
            "description": "Unprocessable Entity - Request is well-formed, however, due to semantic errors it is unable to be processed.",
            "content": {
              "application/json": {
                "schema": {
                  "$ref": "#/components/schemas/Error"
                },
                "example": {
                  "code": "VALIDATION_FAILED",
                  "reason": "The request is invalid."
                }
              }
            }
          },
          "500": {
            "description": "Internal Server Error"
          }
        },
        "requestBody": {
          "required": true,
          "content": {
            "application/json": {
              "schema": {
                "$ref": "#/components/schemas/FlatRateResponse"
              },
              "example": {
                "headers": {
                  "messageId": "1451ffb6-542a-11eb-ae93-0242ac130002",
                  "timestamp": "2021-02-02T08:12:55.657Z",
                  "correlationId": "e8ac51e6-5432-11eb-ae93-0242ac130002",
                  "consumerId": "IDR",
                  "providerId": "ADIS",
                  "parameters": [
                    {
                      "key": "FU",
                      "value": "230"
                    }
                  ]
                },
                "messages": [
                  {
                    "id": "e179fe0a-5432-11eb-ae93-0242ac130002",
                    "processingResult": [
                      "cssz",
                      "zp"
                    ]
                  }
                ]
              }
            }
          }
        },
        "operationId": "TerminatedFlatRateResponseController.create"
      }
    },
    "/providePaymentDetailsResponse": {
      "post": {
        "x-controller-name": "ProvidePaymentDetailsResponseController",
        "x-operation-name": "create",
        "tags": [
          "ProvidePaymentDetailsResponseController"
        ],
        "responses": {
          "204": {
            "description": "providePaymentDetailsResponse POST success"
          },
          "400": {
            "description": "Bad Request - The request could not be understood by the server due to malformed syntax.",
            "content": {
              "application/json": {
                "schema": {
                  "$ref": "#/components/schemas/Error"
                },
                "example": {
                  "code": "SYNTAX_ERROR",
                  "reason": "Malformed syntax"
                }
              }
            }
          },
          "403": {
            "description": "Forbidden"
          },
          "409": {
            "description": "Conflict",
            "content": {
              "application/json": {
                "schema": {
                  "$ref": "#/components/schemas/Error"
                },
                "example": {
                  "code": "CANNOT_PROCEED",
                  "reason": "Can not proceed",
                  "message": "Proposed change has been declined because correlationId can not be found"
                }
              }
            }
          },
          "413": {
            "description": "Payload Too Large"
          },
          "422": {
            "description": "Unprocessable Entity - Request is well-formed, however, due to semantic errors it is unable to be processed.",
            "content": {
              "application/json": {
                "schema": {
                  "$ref": "#/components/schemas/Error"
                },
                "example": {
                  "code": "VALIDATION_FAILED",
                  "reason": "The request is invalid."
                }
              }
            }
          },
          "500": {
            "description": "Internal Server Error"
          }
        },
        "requestBody": {
          "required": true,
          "content": {
            "application/json": {
              "schema": {
                "$ref": "#/components/schemas/ProvidePaymentDetailsResponse"
              },
              "example": {
                "example1-VZP": {
                  "headers": {
                    "messageId": "1451ffb6-542a-11eb-ae93-0242ac130002",
                    "timestamp": "2021-02-02T08:12:55.657Z",
                    "correlationId": "e8ac51e6-5432-11eb-ae93-0242ac130002",
                    "consumerId": "IDR",
                    "providerId": "ADIS",
                    "parameters": [
                      {
                        "key": "FU",
                        "value": "230"
                      }
                    ]
                  },
                  "response": {
                    "type": "vzp",
                    "status": "ok"
                  }
                },
                "example2-CSSZ": {
                  "headers": {
                    "messageId": "1451ffb6-542a-11eb-ae93-0242ac130002",
                    "timestamp": "2021-02-02T08:12:55.657Z",
                    "correlationId": "e8ac51e6-5432-11eb-ae93-0242ac130002",
                    "consumerId": "IDR",
                    "providerId": "ADIS",
                    "parameters": [
                      {
                        "key": "FU",
                        "value": "230"
                      }
                    ]
                  },
                  "response": {
                    "type": "cssz",
                    "status": "warning",
                    "items": [
                      {
                        "id": "93fc8dd6-5c8f-11eb-81d2-366946894202",
                        "payments": [
                          {
                            "id": "202000000000018",
                            "status": "error",
                            "description": "Jméno nesedí s RČ"
                          },
                          {
                            "id": "202000000000019",
                            "status": "warning",
                            "description": "Příklad varování"
                          },
                          {
                            "id": "202000000000020",
                            "status": "ok"
                          }
                        ]
                      }
                    ]
                  }
                }
              }
            }
          }
        },
        "operationId": "ProvidePaymentDetailsResponseController.create"
      }
    },
    "/ping": {
      "get": {
        "x-controller-name": "PingController",
        "x-operation-name": "ping",
        "tags": [
          "PingController"
        ],
        "responses": {
          "200": {
            "description": "Ping Response",
            "content": {
              "application/json": {
                "schema": {
                  "$ref": "#/components/schemas/PingResponse"
                },
                "example": {
                  "greeting": "Hello",
                  "date": "2021-02-03T14:11:01.190Z",
                  "url": "/ping",
                  "headers": {
                    "host": "localhost:3000",
                    "connection": "keep-alive",
                    "accept": "application/json",
                    "user-agent": "AppleWebKit/605.1.15 (KHTML, like Gecko) Version/14.0.3",
                    "accept-language": "en-us",
                    "referer": "http://localhost:3000/explorer/",
                    "accept-encoding": "gzip, deflate"
                  }
                }
              }
            }
          }
        },
        "operationId": "PingController.ping"
      }
    }
  },
  "components": {
    "schemas": {
      "GovInfo": {
        "title": "GovInfo",
        "type": "object",
        "properties": {
          "agenda": {
            "type": "string",
            "description": "Kód agendy na základě které volání probíhá. Nepoužívá se",
            "maxLength": 50
          },
          "agendaRole": {
            "type": "string",
            "description": "Kód agendové role, která službu využívá. Nepoužívá se",
            "maxLength": 50
          },
          "ais": {
            "type": "string",
            "description": "Identifikátor ISVS, ID volajícího agendového informačního systému. Nepoužívá se",
            "maxLength": 50
          },
          "govScope": {
            "type": "string",
            "description": "Oblast, pro kterou je služba požadována. Důvod nebo účel volání služby. Povinné pro určitá volání služeb ISZR a eGSB (DuvodUcel).",
            "maxLength": 50
          },
          "govProcess": {
            "type": "string",
            "description": "Název business procesu, který má být pro zpracování požadavku použit.",
            "maxLength": 50
          }
        },
        "additionalProperties": false
      },
      "Parameter": {
        "title": "Parameter",
        "type": "object",
        "properties": {
          "key": {
            "type": "string",
            "description": "Klíč. Pro tuhle službu se přenáší kód finančního úřadu, který inicioval volání. Konstanta \"FU\"",
            "minLength": 1,
            "maxLength": 50
          },
          "value": {
            "type": "string",
            "description": "Hodnota. Pro tuhle službu se přenáší kód finančního úřadu, který inicioval volání. Hodnota přenesená ze zprávy IDR-PD.checkSelfEmplRequest parameters.value. Příklad \"230\". Zdrojem je číselník FU v ADIS.",
            "minLength": 1,
            "maxLength": 100
          }
        },
        "required": [
          "key",
          "value"
        ],
        "additionalProperties": false
      },
      "Header": {
        "title": "Header",
        "type": "object",
        "properties": {
          "messageId": {
            "type": "string",
            "description": "Jedinečný identifikátor zprávy (A UUID specified by RFC4122).",
            "format": "uuid",
            "minLength": 36,
            "maxLength": 36,
            "pattern": "[0-9a-fA-F]{8}-[0-9a-fA-F]{4}-[0-9a-fA-F]{4}-[0-9a-fA-F]{4}-[0-9a-fA-F]{12}"
          },
          "timestamp": {
            "type": "string",
            "description": "Časové razítko zprávy v RFC3339 formátu. Příklad: \"2021-09-26T07:58:30.996+0200\"",
            "format": "date-time",
            "minLength": 1,
            "maxLength": 36
          },
          "correlationId": {
            "type": "string",
            "description": "Identifikátor používaný k mapování transakčních zpráv. Ve schématu volitelné, ale povinné v tomhle scénáři. Hodnota přenesená z IDR_PD.checkSelfEmplRequest zprávy correlationId",
            "format": "uuid",
            "minLength": 36,
            "maxLength": 36,
            "pattern": "[0-9a-fA-F]{8}-[0-9a-fA-F]{4}-[0-9a-fA-F]{4}-[0-9a-fA-F]{4}-[0-9a-fA-F]{12}"
          },
          "consumerId": {
            "type": "string",
            "description": "Volající systém nebo služba. V tomhle případě konstanta: \"IDR\"",
            "maxLength": 30
          },
          "providerId": {
            "type": "string",
            "description": "Volaný systém nebo služba. V tomhle případě konstanta: \"ADIS nebo DP (Datapower Secure GW)\"",
            "minLength": 1,
            "maxLength": 30,
            "enum": [
              "ADIS",
              "DP"
            ]
          },
          "processingPriority": {
            "type": "number",
            "description": "Priorita zpracování (0-9). Nepoužívá se",
            "pattern": "[0-9]{1}",
            "maxLength": 1
          },
          "govInfo": {
            "type": "array",
            "items": {
              "$ref": "#/components/schemas/GovInfo"
            }
          },
          "parameters": {
            "type": "array",
            "items": {
              "$ref": "#/components/schemas/Parameter"
            }
          }
        },
        "required": [
          "messageId",
          "timestamp",
          "correlationId",
          "consumerId"
        ],
        "additionalProperties": false
      },
      "IntervalSvc": {
        "title": "IntervalSvc",
        "type": "object",
        "properties": {
          "oznameniZahajeniSvc": {
            "type": "string",
            "format": "date",
            "description": "Datum podání oznámení o zahájení SVČ ve formátu RFC3339 full-date. Příklad: \"2021-09-26\""
          },
          "zahajeniSvc": {
            "type": "string",
            "format": "date",
            "description": "Datum zahájení SVČ ve formátu RFC3339 full-date. Příklad: \"2021-09-26\""
          },
          "ukonceniSvc": {
            "type": "string",
            "format": "date",
            "description": "Datum ukončení SVČ ve formátu RFC3339 full-date. Příklad: \"2021-09-26\""
          },
          "duvodUkonceniSvc": {
            "type": "string",
            "description": "Důvod ukončení SVČ. (max. 250 znaků)",
            "maxLength": 250
          }
        },
        "additionalProperties": false
      },
      "IntervalZam": {
        "title": "IntervalZam",
        "type": "object",
        "properties": {
          "zahajeniZam": {
            "type": "string",
            "format": "date",
            "description": "Začátek pojistného vztahu zaměstnance ve formátu RFC3339 full-date. Příklad: \"2021-09-26\""
          },
          "ukonceniZam": {
            "type": "string",
            "format": "date",
            "description": "Konec pojistného vztahu zaměstnance ve formátu RFC3339 full-date. Příklad: \"2021-09-26\""
          },
          "oznameniZahajeniZam": {
            "type": "string",
            "format": "date",
            "description": "Datum přijetí formuláře přihlášky ve formátu RFC3339 full-date. Příklad: \"2021-09-26\""
          },
          "oznameniUkonceniZam": {
            "type": "string",
            "format": "date",
            "description": "Datum přijetí formuláře odhlášky ve formátu RFC3339 full-date. Příklad: \"2021-09-26\""
          },
          "typPracovnihoPomeru": {
            "type": "string",
            "description": "Název druhu činnosti v zaměstnání.",
            "maxLength": 255
          },
          "nazevZam": {
            "type": "string",
            "description": "Název zaměstnavatele",
            "maxLength": 255
          },
          "icoZam": {
            "type": "string",
            "description": "IČO zaměstnavatele. Příklad: 25596641",
            "minLength": 1,
            "maxLength": 35
          },
          "adresaZam": {
            "type": "string",
            "description": "Adresa zaměstnavatele ve tvaru ulice, čp./čo., PSČ, město, stát (jeden řádek, max. 255 znaků)",
            "maxLength": 255
          }
        },
        "additionalProperties": false
      },
      "Subjekt": {
        "title": "Subjekt",
        "type": "object",
        "properties": {
          "id": {
            "type": "string",
            "description": "Jedinečný identifikátor zprávy (A UUID specified by RFC4122).",
            "format": "uuid",
            "minLength": 36,
            "maxLength": 36,
            "pattern": "[0-9a-fA-F]{8}-[0-9a-fA-F]{4}-[0-9a-fA-F]{4}-[0-9a-fA-F]{4}-[0-9a-fA-F]{12}"
          },
          "aifo": {
            "type": "string",
            "description": "AIFO ADIS",
            "minLength": 24,
            "maxLength": 24
          },
          "rodneCislo": {
            "type": "string",
            "description": "Rodné číslo bez mezer, lomítek a jiných formátovacích znaků.",
            "minLength": 9,
            "maxLength": 10,
            "pattern": "[0-9]{9,10}"
          },
          "cisloPojistence": {
            "type": "string",
            "description": "Číslo pojištěnce dle metodiky VZP z registračního formuláře",
            "minLength": 9,
            "maxLength": 10,
            "pattern": "[0-9]{9,10}"
          },
          "evidencniCisloPojistence": {
            "type": "string",
            "description": "Evidenční číslo pojištěnce dle metodiky ČSSZ z registračního formuláře. Vždy musí být uveden alespoň jeden z údajů - RČ, ČP nebo EČP.",
            "minLength": 9,
            "maxLength": 10,
            "pattern": "[0-9]{9,10}"
          },
          "jmeno": {
            "type": "string",
            "description": "Jméno OSVČ v režimu PP",
            "minLength": 1,
            "maxLength": 100
          },
          "prijmeni": {
            "type": "string",
            "description": "Příjmení OSVČ v režimu PP",
            "minLength": 1,
            "maxLength": 100
          },
          "rodnePrijmeni": {
            "type": "string",
            "description": "Rodné příjmení OSVČ v režimu PP",
            "maxLength": 100
          },
          "datumNarozeni": {
            "type": "string",
            "minLength": 1,
            "maxLength": 12,
            "description": "Datum narození OSVČ v režimu PP v RFC3339 formátu full-date. Příklad: \"2021-09-26\"",
            "format": "date"
          },
          "jePojisten": {
            "type": "string",
            "description": "OSVČ je účastníkem zdravotního pojištění. Posílá se jenom když byla doručena odpověď ze ZP (výsledekZpracování obsahuje hodnotu zp). Hodnoty: ano (je účastníkem), ne (není účastníkem), anoRozdil (je účastníkem, byl ztotožněn, ale pojišťovna eviduje rozdílné údaje).",
            "maxLength": 24,
            "enum": [
              "ano",
              "ne",
              "anoRozdil"
            ]
          },
          "intervalySvc": {
            "type": "array",
            "items": {
              "$ref": "#/components/schemas/IntervalSvc"
            }
          },
          "intervalyZam": {
            "type": "array",
            "items": {
              "$ref": "#/components/schemas/IntervalZam"
            }
          },
          "vysledekZpracovani": {
            "type": "array",
            "description": "Výsledek zpracování. Hodnoty: cssz (byla doručena odpověď ČSSZ), zp (byla doručena odpověď VZP), zp (byla doručena odpověď Msp), none (nebyla doručena žádná odpověď - ostatní možnosti se v takovém případě ignorují).",
            "items": {
              "type": "string",
              "minLength": 1,
              "maxLength": 24,
              "enum": [
                "cssz",
                "zp",
                "msp",
                "none"
              ]
            }
          }
        },
        "required": [
          "id",
          "jmeno",
          "prijmeni",
          "datumNarozeni",
          "vysledekZpracovani"
        ],
        "additionalProperties": false
      },
      "CheckSelfEmplResponse": {
        "title": "CheckSelfEmplResponse",
        "type": "object",
        "description": "CheckSelfEmplResponse",
        "properties": {
          "headers": {
            "$ref": "#/components/schemas/Header"
          },
          "subjekty": {
            "type": "array",
            "items": {
              "$ref": "#/components/schemas/Subjekt"
            }
          }
        },
        "additionalProperties": false,
        "x-typescript-type": "CheckSelfEmplResponse"
      },
      "IntegrationMessage": {
        "title": "IntegrationMessage",
        "type": "object",
        "properties": {
          "id": {
            "type": "string",
            "description": "Jedinečný identifikátor zprávy (A UUID specified by RFC4122).",
            "format": "uuid",
            "minLength": 36,
            "maxLength": 36,
            "pattern": "[0-9a-fA-F]{8}-[0-9a-fA-F]{4}-[0-9a-fA-F]{4}-[0-9a-fA-F]{4}-[0-9a-fA-F]{12}"
          },
          "processingResult": {
            "type": "array",
            "description": "Výsledek zpracování. Hodnoty: cssz (byla doručena odpověď ČSSZ), zp (byla doručena odpověď VZP), none (nebyla doručena žádná odpověď - ostatní možnosti se v takovém případě ignorují).",
            "items": {
              "type": "string",
              "minLength": 1,
              "maxLength": 24,
              "enum": [
                "cssz",
                "zp",
                "none"
              ]
            }
          }
        },
        "required": [
          "id",
          "processingResult"
        ],
        "additionalProperties": false
      },
      "FlatRateResponse": {
        "title": "FlatRateResponse",
        "type": "object",
        "description": "FlatRateResponse",
        "properties": {
          "headers": {
            "$ref": "#/components/schemas/Header"
          },
          "messages": {
            "type": "array",
            "items": {
              "$ref": "#/components/schemas/IntegrationMessage"
            }
          }
        },
        "additionalProperties": false,
        "x-typescript-type": "FlatRateResponse"
      },
      "Payment": {
        "title": "Payment",
        "type": "object",
        "properties": {
          "id": {
            "type": "string",
            "description": "Jedinečný identifikátor platby. U každé platby (i opravované) musí být vyplněno nové jedinečné ID",
            "minLength": 1,
            "maxLength": 15
          },
          "status": {
            "type": "string",
            "description": "Odpověď ČSSZ: ok = platba převzata warning = varování error = platba nebyla zpracována. Pokud není ok tak je description povinné pole.",
            "minLength": 1,
            "maxLength": 24,
            "enum": [
              "ok",
              "warning",
              "error"
            ]
          },
          "description": {
            "type": "string",
            "description": "Popis varování nebo chyby zpracování",
            "maxLength": 250
          }
        },
        "required": [
          "id",
          "status"
        ],
        "additionalProperties": false
      },
      "PaymentItem": {
        "title": "PaymentItem",
        "type": "object",
        "properties": {
          "id": {
            "type": "string",
            "description": "Jedinečný identifikátor zprávy (A UUID specified by RFC4122).",
            "format": "uuid",
            "minLength": 36,
            "maxLength": 36,
            "pattern": "[0-9a-fA-F]{8}-[0-9a-fA-F]{4}-[0-9a-fA-F]{4}-[0-9a-fA-F]{4}-[0-9a-fA-F]{12}"
          },
          "payments": {
            "type": "array",
            "items": {
              "$ref": "#/components/schemas/Payment"
            }
          }
        },
        "required": [
          "id"
        ],
        "additionalProperties": false
      },
      "PaymentResponse": {
        "title": "PaymentResponse",
        "type": "object",
        "properties": {
          "type": {
            "type": "string",
            "description": "Kdo odpověď zpracoval. Pokud type=vzp tak se položky (pole items) neposílají. ",
            "enum": [
              "vzp",
              "cssz"
            ],
            "minLength": 1,
            "maxLength": 24
          },
          "status": {
            "type": "string",
            "description": "Odpověď VZP: ok = přehled plateb převzat warning = přehled plateb nebyl uložen za všechna OSVČPP (vyskytlo se OSVČPP, které není v ZP jako OSVČPP evidováno) error = souhrn neodpovídá počet vět, neodpovídá přehled\nOdpověď ČSSZ: ok = přehled plateb převzat, warning = přehled plateb převzat, ale vyskytuje se upozornění u položek, error = přehled nebyl zpracován",
            "minLength": 1,
            "maxLength": 24,
            "enum": [
              "ok",
              "warning",
              "error"
            ]
          },
          "items": {
            "type": "array",
            "items": {
              "$ref": "#/components/schemas/PaymentItem"
            }
          }
        },
        "required": [
          "type",
          "status"
        ],
        "additionalProperties": false
      },
      "ProvidePaymentDetailsResponse": {
        "title": "ProvidePaymentDetailsResponse",
        "type": "object",
        "description": "ProvidePaymentDetailsResponse",
        "properties": {
          "headers": {
            "$ref": "#/components/schemas/Header"
          },
          "response": {
            "$ref": "#/components/schemas/PaymentResponse"
          }
        },
        "additionalProperties": false,
        "x-typescript-type": "ProvidePaymentDetailsResponse"
      },
      "PingResponse": {
        "type": "object",
        "title": "PingResponse",
        "properties": {
          "greeting": {
            "type": "string"
          },
          "date": {
            "type": "string"
          },
          "url": {
            "type": "string"
          },
          "header": {
            "type": "object",
            "properties": {
              "Content-Type": {
                "type": "string"
              }
            },
            "additionalProperties": true
          }
        }
      },
      "Error": {
        "description": "Used when an API throws an Error, typically with a HTTP error response-code (3xx, 4xx, 5xx)",
        "type": "object",
        "required": [
          "code",
          "reason"
        ],
        "properties": {
          "code": {
            "type": "string",
            "description": "Application relevant detail, defined in the API or a common list."
          },
          "reason": {
            "type": "string",
            "description": "Explanation of the reason for the error which can be shown to a client user."
          },
          "message": {
            "type": "string",
            "description": "More details and corrective actions related to the error which can be shown to a client user."
          }
        }
      }
    }
  }
}